hardware_design/nvdla_with_tdc_zc706/NVDLA_SMALL/.Xil/Vivado-24148-CSLS10/hw_ila_data_1/zip_work/waveform.vcd
$date
        2022-Oct-20 10:48:21
$end
$version
        Vivado v2019.1 (64-bit)
$end
$timescale
        1ps
$end
$scope module dut $end
$var reg 1 " design_1_i/NV_nvdla_wrapper_0_dla_intr $end
$var reg 32 # design_1_i/tdc_bank_0_data_o [31:0] $end
$var reg 1 C _TRIGGER $end
$var reg 1 D _WINDOW $end
$var reg 1 E _GAP $end
$upscope $end
$enddefinitions $end
#0
$dumpvars
0"
b1101011 #
1C
1D
0E
$end
#2
b1110100 #
#3
b10000011 #
#4
b1111010 #
#5
b10000001 #
#6
b10000111 #
#7
b1100110 #
#8
b1101100 #
#10
b1111001 #
#11
b1111101 #
#12
b10000001 #
#13
b10000111 #
#14
b1101010 #
#15
b1101110 #
#16
b1101011 #
#17
b1111100 #
#18
b1111111 #
#19
b10000001 #
#20
b10010000 #
#21
b1101001 #
#22
b1101011 #
#23
b1110010 #
#24
b1111111 #
#25
b1111011 #
#26
b10000000 #
#27
b10000110 #
#28
b1101100 #
#29
b1101011 #
#30
b1101010 #
#31
b1110110 #
#32
b10000001 #
#33
b10000000 #
#34
b10000101 #
#35
b1101001 #
#36
b1101011 #
#37
b1101100 #
#38
b1111000 #
#39
b1111011 #
#40
b10000110 #
#41
b10001101 #
#42
b1110001 #
#43
b1101010 #
#44
b1111001 #
#45
b10000100 #
#46
b1111011 #
#47
b10000101 #
#48
b10001101 #
#49
b1101010 #
#50
b1101011 #
#51
b1110000 #
#52
b1111011 #
#53
b1111100 #
#54
b10000011 #
#55
b10001001 #
#56
b1101011 #
#57
b1101100 #
#58
b1110010 #
#59
b1111100 #
#60
b1111110 #
#61
b10000011 #
#62
b10001111 #
#63
b1110001 #
#64
b1101010 #
#65
b1101110 #
#66
b10000100 #
#67
b1111100 #
#68
b10000110 #
#69
b10001111 #
#70
b1101011 #
#71
b1101100 #
#72
b1101011 #
#73
b1111010 #
#74
b10000100 #
#75
b1111110 #
#76
b10001101 #
#77
b1101011 #
#78
b1101110 #
#79
b1110000 #
#80
b1111011 #
#81
b1111101 #
#82
b1111110 #
#83
b10001110 #
#84
b1101010 #
#85
b1101011 #
#86
b1110011 #
#87
b10000000 #
#88
b1111111 #
#90
b10000100 #
#91
b1101010 #
#92
b1101011 #
#93
b1101010 #
#94
b1111000 #
#95
b10000101 #
#96
b1111110 #
#97
b10001001 #
#98
b1101010 #
#99
b1101001 #
#100
b1101011 #
#101
b1111010 #
#102
b1111011 #
#103
b1111111 #
#104
b10000011 #
#105
b1101011 #
#108
b1111111 #
#109
b1110110 #
#110
b1111011 #
#111
b10000101 #
#112
b1101000 #
#113
b1101011 #
#114
b1101010 #
#115
b1110110 #
#116
b1111010 #
#117
b1111101 #
#118
b1111111 #
#119
b1100101 #
#120
b1101010 #
#121
b1101011 #
#122
b1110110 #
#123
b1111010 #
#124
b1111100 #
#125
b10000100 #
#126
b1101011 #
#127
b1101001 #
#128
b1101100 #
#129
b10000000 #
#130
b1111101 #
#131
b1111111 #
#132
b10001001 #
#133
b1100110 #
#134
b1101111 #
#135
b1101001 #
#136
b1110110 #
#137
b10000001 #
#139
b10000101 #
#140
b1101010 #
#141
b1101011 #
#143
b1111001 #
#145
b10000010 #
#146
b10001001 #
#147
b1101011 #
#148
b1101001 #
#149
b1110001 #
#150
b1111011 #
#151
b1111110 #
#152
b10000100 #
#153
b10000111 #
#154
b1101011 #
#156
b1101100 #
#157
b1111010 #
#158
b1111100 #
#159
b10000000 #
#160
b10000101 #
#161
b1101011 #
#162
b1101001 #
#163
b1101011 #
#164
b1111001 #
#165
b1111111 #
#166
b10000001 #
#167
b10000111 #
#168
b1101011 #
#170
b1110010 #
#171
b1111011 #
#172
b1111010 #
#173
b10000100 #
#174
b10000101 #
#175
b1101011 #
#177
b1101010 #
#178
b1111001 #
#179
b1111010 #
#180
b1111110 #
#181
b10000101 #
#182
b1101011 #
#184
b1101100 #
#185
b1111101 #
#186
b1111011 #
#187
b1111110 #
#188
b10000100 #
#189
b1101100 #
#190
b1100110 #
#191
b1110000 #
#192
b10000001 #
#193
b1111001 #
#194
b1111111 #
#195
b10000111 #
#196
b1101011 #
#197
b1110000 #
#198
b1101011 #
#199
b1111101 #
#200
b10000001 #
#201
b1111110 #
#202
b10000101 #
#203
b1100110 #
#204
b1101011 #
#206
b1111000 #
#207
b1110100 #
#208
b1111100 #
#209
b10001101 #
#210
b1101011 #
#212
b1101100 #
#213
b10000000 #
#214
b1111011 #
#215
b1111111 #
#216
b10001110 #
#217
b1101010 #
#218
b1101011 #
#220
b1110111 #
#221
b10000100 #
#222
b10000000 #
#223
b10000110 #
#224
b1101001 #
#225
b1101010 #
#226
b1101011 #
#227
b1111011 #
#228
b10000000 #
#229
b10000011 #
#230
b10001011 #
#231
b1101011 #
#233
b1110100 #
#234
b1111110 #
#235
b1111011 #
#236
b10000000 #
#237
b10000101 #
#238
b1101011 #
#239
b1101010 #
#240
b1101011 #
#241
b1110110 #
#242
b1111110 #
#243
b10000100 #
#244
b10000111 #
#245
b1101001 #
#246
b1101101 #
#247
b1101010 #
#248
b10000000 #
#249
b1111111 #
#250
b1111110 #
#251
b10000100 #
#252
b1101110 #
#253
b1101100 #
#254
b1101101 #
#255
b10000000 #
#256
b1111100 #
#257
b10000010 #
#258
b10000111 #
#259
b1101010 #
#260
b1110010 #
#261
b1101011 #
#262
b1111100 #
#263
b1111011 #
#264
b10000100 #
#265
b10000101 #
#266
b1101010 #
#267
b1101100 #
#268
b1101011 #
#269
b1111000 #
#270
b1111010 #
#271
b1111111 #
#272
b10001011 #
#273
b1101100 #
#274
b1101011 #
#275
b1110011 #
#276
b1111110 #
#277
b10000000 #
#278
b1111110 #
#279
b10000101 #
#280
b1101011 #
#283
b1110101 #
#284
b1111011 #
#286
b10000110 #
#287
b1100011 #
#288
b1101001 #
#289
b1101100 #
#290
b1111101 #
#291
b1111100 #
#292
b1111111 #
#293
b10000100 #
#294
b1101010 #
#295
b1100110 #
#296
b1110001 #
#297
b1111001 #
#298
b1111010 #
#299
b10000010 #
#300
b10000101 #
#301
b1101010 #
#303
b1101011 #
#304
b1110110 #
#305
b1111010 #
#306
b1111100 #
#307
b10000100 #
#308
b1100111 #
#309
b1101011 #
#311
b1111100 #
#312
b1111011 #
#313
b1111110 #
#314
b10001000 #
#315
b1101011 #
#316
b1101010 #
#317
b1101011 #
#318
b1111101 #
#319
b1111001 #
#320
b1111111 #
#321
b10000111 #
#322
b1101010 #
#323
b1101100 #
#324
b1101010 #
#325
b1111100 #
#326
b1111010 #
#327
b1111111 #
#328
b10000101 #
#329
b1100100 #
#330
b1101011 #
#331
b1101010 #
#332
b1111011 #
#333
b1111000 #
#334
b1111001 #
#335
b10000101 #
#336
b1101001 #
#337
b1100110 #
#338
b1101011 #
#339
b1111010 #
#340
b1111100 #
#341
b1111001 #
#342
b1111111 #
#343
b1100111 #
#344
b1101011 #
#345
b1101010 #
#346
b1110011 #
#347
b1111111 #
#348
b1111110 #
#350
b1100000 #
#351
b1101011 #
#352
b1101100 #
#353
b1110110 #
#354
b1111001 #
#355
b1111100 #
#356
b10000100 #
#357
b1101011 #
#358
b1101001 #
#359
b1110001 #
#360
b1111101 #
#361
b1110111 #
#362
b1111010 #
#363
b10000111 #
#364
b1101010 #
#365
b1101011 #
#367
b1110101 #
#368
b1111001 #
#369
b10000001 #
#370
b10000100 #
#371
b1101000 #
#372
b1101100 #
#373
b1101101 #
#374
b1111001 #
#375
b1111100 #
#377
b10000011 #
#378
b1101100 #
#379
b1101010 #
#380
b1101101 #
#381
b1111100 #
#382
b1111011 #
#383
b10000011 #
#384
b10000111 #
#385
b1101001 #
#386
b1101100 #
#387
b1101011 #
#388
b1111100 #
#390
b10000000 #
#391
b10000111 #
#392
b1101011 #
#393
b1101110 #
#394
b1101011 #
#395
b1111101 #
#396
b1111100 #
#397
b10000100 #
#398
b10001011 #
#399
b1101100 #
#400
b1101011 #
#401
b1110100 #
#402
b10000010 #
#403
b10000000 #
#404
b10000010 #
#405
b10001011 #
#406
b1101000 #
#407
b1101011 #
#408
b1110010 #
#409
b1111001 #
#410
b1111111 #
#411
b1111110 #
#412
b10001110 #
#413
b1100111 #
#414
b1110001 #
#415
b1110110 #
#417
b1111011 #
#418
b10000000 #
#419
b10000101 #
#420
b1101110 #
#421
b1101010 #
#422
b1110110 #
#423
b10000100 #
#424
b10000000 #
#425
b10000011 #
#426
b10000111 #
#427
b1110000 #
#429
b1101011 #
#430
b1111010 #
#431
b1111110 #
#432
b10000100 #
#434
b1101100 #
#435
b1101011 #
#436
b1110000 #
#437
b1111110 #
#438
b1111010 #
#439
b10000011 #
#441
b1101100 #
#442
b1101010 #
#443
b1110010 #
#444
b10000011 #
#445
b1111010 #
#446
b10000011 #
#447
b10000111 #
#448
b1101001 #
#449
b1101011 #
#451
b1111010 #
#452
b1111101 #
#453
b10000011 #
#454
b10000101 #
#455
b1101010 #
#456
b1101100 #
#457
b1101011 #
#458
b1111010 #
#459
b10000000 #
#460
b10000010 #
#461
b10001010 #
#462
b1101010 #
#463
b1101011 #
#464
b1110001 #
#465
b1111000 #
#466
b1111010 #
#467
b10000011 #
#468
b10000110 #
#469
b1101001 #
#470
b1101010 #
#471
b1101011 #
#472
b1111000 #
#473
b1111010 #
#474
b10000000 #
#475
b10000101 #
#476
b1101010 #
#478
b1110001 #
#479
b1111000 #
#480
b1111101 #
#481
b1111110 #
#482
b10001000 #
#483
b1101111 #
#484
b1101001 #
#485
b1101111 #
#486
b1111100 #
#487
b1111101 #
#488
b1111110 #
#489
b10000111 #
#490
b1101011 #
#491
b1101010 #
#492
b1110001 #
#493
b1111100 #
#494
b1111101 #
#495
b10000100 #
#496
b10001111 #
#497
b1101010 #
#498
b1101011 #
#499
b1101110 #
#500
b1111111 #
#501
b1111001 #
#502
b1111011 #
#503
b10000110 #
#504
b1101001 #
#505
b1101010 #
#506
b1101011 #
#507
b1111110 #
#508
b1111100 #
#509
b10000001 #
#510
b10001001 #
#511
b1101010 #
#512
b1110101 #
#513
b1101011 #
#514
b1111011 #
#515
b1111110 #
#516
b1111111 #
#517
b10000001 #
#518
b1101010 #
#519
b1101100 #
#520
b1101011 #
#521
b1111000 #
#522
b1111100 #
#523
b1111110 #
#524
b10001011 #
#525
b1110001 #
#526
b1101011 #
#527
b1101110 #
#528
b1111110 #
#529
b1111101 #
#530
b10000000 #
#531
b10000111 #
#532
b1101010 #
#533
b1101011 #
#535
b1110000 #
#536
b1111110 #
#537
b1111000 #
#538
b10000101 #
#539
b1101010 #
#541
b1110000 #
#542
b1111010 #
#543
b1111110 #
#544
b1111111 #
#545
b10000111 #
#546
b1101010 #
#547
b1101001 #
#548
b1110010 #
#549
b10000011 #
#550
b1111011 #
#551
b1111101 #
#552
b10000011 #
#553
b1101011 #
#555
b1101010 #
#556
b1110100 #
#557
b1111011 #
#558
b1111111 #
#559
b10000010 #
#560
b1100101 #
#561
b1101011 #
#562
b1101010 #
#563
b1111011 #
#564
b1111110 #
#565
b1111010 #
#566
b10000101 #
#567
b1101011 #
#568
b1101000 #
#569
b1101011 #
#570
b1111011 #
#571
b1111000 #
#572
b10000011 #
#574
b1101010 #
#575
b1101011 #
#577
b1111001 #
#578
b1111010 #
#579
b1111101 #
#580
b10000100 #
#581
b1100111 #
#582
b1101011 #
#584
b1111000 #
#585
b1111001 #
#586
b1111110 #
#587
b10001101 #
#588
b1101011 #
#589
b1101001 #
#590
b1101110 #
#591
b1111011 #
#592
b1111101 #
#593
b1111110 #
#594
b10001100 #
#595
b1101100 #
#596
b1101011 #
#597
b1101010 #
#598
b1111000 #
#599
b1111100 #
#600
b1111110 #
#601
b10000101 #
#602
b1100110 #
#603
b1101011 #
#604
b1101110 #
#605
b1111000 #
#606
b1111010 #
#607
b10000011 #
#608
b10001001 #
#609
b1101011 #
#610
b1100111 #
#611
b1101101 #
#612
b1111101 #
#613
b1110110 #
#614
b1111111 #
#615
b10000111 #
#616
b1101000 #
#618
b1100111 #
#619
b1101111 #
#620
b1111000 #
#621
b1111011 #
#622
b1111111 #
#623
b1101010 #
#626
b1111001 #
#627
b1111010 #
#628
b10000000 #
#629
b10000111 #
#630
b1101001 #
#632
b1101011 #
#633
b1110111 #
#634
b1111000 #
#635
b1111011 #
#636
b10000100 #
#637
b1101010 #
#638
b1101011 #
#640
b1110100 #
#641
b1111011 #
#642
b1111101 #
#643
b10000101 #
#644
b1101001 #
#645
b1101011 #
#646
b1101110 #
#647
b1111001 #
#648
b1111010 #
#649
b10000001 #
#650
b10000101 #
#651
b1101101 #
#652
b1101010 #
#653
b1110000 #
#654
b1111011 #
#655
b1111101 #
#656
b10000001 #
#657
b10001011 #
#658
b1101010 #
#659
b1101000 #
#660
b1101011 #
#661
b1111100 #
#662
b1111011 #
#663
b1111100 #
#664
b10000101 #
#665
b1100110 #
#666
b1101010 #
#667
b1101101 #
#668
b1111011 #
#669
b1111100 #
#670
b1111111 #
#671
b10001010 #
#672
b1101011 #
#673
b1101010 #
#674
b1101110 #
#675
b10000010 #
#676
b1111010 #
#677
b1111111 #
#678
b10001101 #
#679
b1101010 #
#682
b1110111 #
#683
b1111010 #
#684
b10000010 #
#685
b10000100 #
#686
b1101010 #
#688
b1101101 #
#689
b1111010 #
#690
b1111001 #
#691
b10000100 #
#692
b10000111 #
#693
b1101010 #
#695
b1101011 #
#696
b1111111 #
#697
b1111000 #
#698
b1111111 #
#699
b10000111 #
#700
b1100111 #
#701
b1110000 #
#702
b1101010 #
#703
b1111001 #
#704
b10000000 #
#705
b10000011 #
#706
b10000101 #
#707
b1101010 #
#710
b1110010 #
#711
b1111011 #
#712
b1111110 #
#713
b10000111 #
#714
b1101010 #
#715
b1101001 #
#716
b1101111 #
#717
b1110101 #
#718
b1111010 #
#719
b1111110 #
#720
b10000011 #
#721
b1100111 #
#722
b1101001 #
#723
b1101010 #
#724
b1110110 #
#725
b1111111 #
#726
b1111100 #
#727
b10000101 #
#728
b1100110 #
#729
b1101001 #
#730
b1110010 #
#731
b1111000 #
#732
b1111010 #
#733
b1111001 #
#734
b10000101 #
#735
b1101100 #
#736
b1101011 #
#738
b1111111 #
#739
b1111001 #
#740
b1111110 #
#741
b1111111 #
#742
b1101001 #
#744
b1101011 #
#745
b1110100 #
#746
b1110101 #
#747
b10000000 #
#748
b10000100 #
#749
b1101000 #
#750
b1101010 #
#751
b1101011 #
#752
b1111011 #
#753
b1111010 #
#754
b10000000 #
#756
b1101011 #
#757
b1101001 #
#758
b1110010 #
#759
b1111100 #
#760
b1111000 #
#761
b10000100 #
#762
b10000111 #
#763
b1101011 #
#765
b1101001 #
#766
b1111001 #
#767
b1111100 #
#768
b10000011 #
#769
b10000100 #
#770
b1101010 #
#771
b1101011 #
#773
b1111001 #
#774
b1110111 #
#775
b10000001 #
#776
b10001001 #
#777
b1101010 #
#778
b1101001 #
#779
b1110001 #
#780
b1111000 #
#781
b1111100 #
#782
b1111101 #
#783
b10000100 #
#784
b1101100 #
#785
b1101010 #
#786
b1101011 #
#787
b1111001 #
#788
b1111011 #
#789
b1111101 #
#790
b10000011 #
#791
b1101001 #
#792
b1101010 #
#793
b1101011 #
#794
b1110001 #
#795
b1111011 #
#796
b1111100 #
#797
b10000011 #
#798
b1101100 #
#799
b1101001 #
#800
b1101110 #
#801
b1111010 #
#802
b1111001 #
#803
b1111011 #
#804
b10000101 #
#805
b1101010 #
#806
b1101001 #
#807
b1101011 #
#808
b1110001 #
#809
b1111001 #
#810
b1111111 #
#811
b10000011 #
#812
b1101010 #
#813
b1101011 #
#815
b1111100 #
#816
b1111011 #
#817
b1111110 #
#818
b10000011 #
#819
b1101011 #
#820
b1101010 #
#821
b1101101 #
#822
b10000000 #
#823
b1110110 #
#824
b1111110 #
#825
b10000110 #
#826
b1101010 #
#827
b1101100 #
#828
b1101101 #
#829
b1111010 #
#830
b1111110 #
#831
b1111011 #
#832
b10000111 #
#833
b1100100 #
#834
b1101010 #
#835
b1101101 #
#836
b1111010 #
#837
b1111100 #
#838
b1111111 #
#839
b10001001 #
#840
b1101011 #
#841
b1101001 #
#842
b1101100 #
#843
b1111110 #
#844
b1111111 #
#845
b1111100 #
#846
b10000111 #
#847
b1101011 #
#850
b1111010 #
#851
b1111101 #
#852
b1111111 #
#853
b10000100 #
#854
b1101000 #
#855
b1101010 #
#856
b1101111 #
#857
b1111000 #
#858
b1111111 #
#859
b10000000 #
#860
b10001101 #
#861
b1110001 #
#862
b1101010 #
#863
b1110110 #
#864
b10000001 #
#865
b1111101 #
#866
b10000000 #
#867
b10001001 #
#868
b1101010 #
#869
b1110000 #
#870
b1101111 #
#871
b1111011 #
#872
b1111101 #
#873
b10001001 #
#874
b10000100 #
#875
b1101011 #
#876
b1110001 #
#877
b1110011 #
#878
b1111100 #
#879
b10000011 #
#880
b10000101 #
#881
b10001101 #
#882
b1110000 #
#883
b1101111 #
#884
b1110010 #
#885
b10000011 #
#886
b1111100 #
#887
b10000100 #
#888
b10000101 #
#889
b1101010 #
#890
b1110001 #
#891
b1101010 #
#892
b1111010 #
#893
b10000001 #
#895
b10000100 #
#896
b1101010 #
#897
b1101101 #
#898
b1101011 #
#899
b1111010 #
#901
b1111011 #
#902
b10001001 #
#903
b1101011 #
#904
b1101010 #
#905
b1110100 #
#906
b1111101 #
#907
b1111010 #
#908
b1111111 #
#909
b10000100 #
#910
b1101010 #
#911
b1101011 #
#913
b1111000 #
#914
b1111101 #
#915
b1111100 #
#916
b10000111 #
#917
b1100111 #
#918
b1101011 #
#919
b1110000 #
#920
b1111000 #
#921
b1111110 #
#922
b1111001 #
#923
b10000101 #
#924
b1101011 #
#925
b1101010 #
#926
b1110001 #
#927
b1111101 #
#928
b1111010 #
#929
b1111101 #
#930
b10000001 #
#931
b1100110 #
#932
b1101101 #
#933
b1101100 #
#934
b1111000 #
#935
b1111011 #
#936
b10000001 #
#937
b10000111 #
#938
b1100101 #
#939
b1101001 #
#940
b1101011 #
#941
b1111001 #
#942
b1111100 #
#943
b1111000 #
#944
b10000011 #
#945
b1101100 #
#946
b1101011 #
#947
b1101101 #
#948
b1111101 #
#949
b1111001 #
#950
b1111101 #
#951
b10000101 #
#952
b1101000 #
#953
b1101011 #
#955
b1111011 #
#956
b1111000 #
#957
b1111101 #
#958
b1111111 #
#959
b1101010 #
#960
b1101011 #
#962
b1110100 #
#963
b1111011 #
#964
b1111111 #
#965
b10000101 #
#966
b1101010 #
#967
b1101001 #
#968
b1101110 #
#969
b1111010 #
#971
b1111101 #
#972
b10000100 #
#973
b1101001 #
#975
b1101011 #
#976
b1110101 #
#977
b1111110 #
#978
b1111001 #
#979
b10000110 #
#980
b1100101 #
#981
b1101011 #
#982
b1101111 #
#983
b1111001 #
#984
b1111100 #
#986
b10000111 #
#987
b1101011 #
#988
b1100111 #
#989
b1110000 #
#990
b1111100 #
#991
b1111010 #
#992
b10000000 #
#993
b10000101 #
#994
b1101010 #
#995
b1101100 #
#997
b1111010 #
#998
b1111100 #
#999
b1111011 #
#1000
b10000101 #
#1001
b1101010 #
#1004
b1111001 #
#1005
b1111101 #
#1006
b1111100 #
#1007
b10000011 #
#1008
b1101101 #
#1009
b1101010 #
#1010
b1110011 #
#1011
b1111010 #
#1012
b1110111 #
#1013
b1111111 #
#1014
b10000010 #
#1015
b1100111 #
#1016
b1101011 #
#1018
b1111010 #
#1019
b1111001 #
#1020
b1111111 #
#1021
b10000100 #
#1022
b1101010 #
#1023
b1101011 #
#1024
b1101111 #
#1025
b1111010 #
#1026
b1111110 #
#1027
b1111111 #
#1028
b10000111 #
#1029
b1101100 #
#1030
b1101010 #
#1031
b1110000 #
#1032
b1111110 #
#1033
b1111101 #
#1034
b10000000 #
#1035
b10000111 #
#1036
b1101001 #
#1037
b1101011 #
#1039
b1110101 #
#1040
b10000000 #
#1041
b10000001 #
#1042
b10000101 #
#1043
b1101001 #
#1044
b1110001 #
#1046
b1111010 #
#1047
b10000000 #
#1048
b10000011 #
#1049
b10000100 #
#1050
b1101110 #
#1051
b1101011 #
#1052
b1110001 #
#1053
b1111010 #
#1054
b1111111 #
#1056
b10000101 #
#1057
b1101011 #
#1058
b1100111 #
#1059
b1101011 #
#1060
b1111001 #
#1061
b1111110 #
#1062
b1111101 #
#1063
b10000011 #
#1064
b1101001 #
#1065
b1101100 #
#1066
b1101110 #
#1067
b1111010 #
#1068
b1111100 #
#1069
b10000001 #
#1070
b10000110 #
#1071
b1101010 #
#1072
b1101000 #
#1073
b1101011 #
#1074
b1111111 #
#1075
b1111001 #
#1076
b1111101 #
#1077
b10000100 #
#1078
b1101011 #
#1080
b1101010 #
#1081
b1110111 #
#1082
b1111010 #
#1083
b1111100 #
#1084
b1111111 #
#1085
b1100101 #
#1086
b1101011 #
#1088
b1110111 #
#1089
b1111010 #
#1090
b1111001 #
#1091
b10000100 #
#1092
b1101010 #
#1093
b1101011 #
#1094
b1101111 #
#1095
b1111010 #
#1097
b1111101 #
#1098
b10000101 #
#1099
b1101000 #
#1100
b1101010 #
#1101
b1101100 #
#1102
b1110011 #
#1103
b10000001 #
#1105
b10000100 #
#1106
b1100101 #
#1107
b1101010 #
#1108
b1101011 #
#1109
b1110111 #
#1110
b10000000 #
#1111
b1111101 #
#1112
b10000001 #
#1113
b1101010 #
#1114
b1101001 #
#1115
b1101110 #
#1116
b1111101 #
#1117
b1111000 #
#1118
b1111100 #
#1119
b10000111 #
#1120
b1100111 #
#1121
b1101001 #
#1122
b1101011 #
#1123
b1111001 #
#1124
b1111010 #
#1125
b1111011 #
#1126
b10000100 #
#1127
b1101010 #
#1129
b1101011 #
#1130
b1110111 #
#1131
b1111010 #
#1132
b10000001 #
#1133
b10000010 #
#1134
b1101011 #
#1135
b1100111 #
#1136
b1101011 #
#1137
b10000000 #
#1138
b1110101 #
#1139
b1111110 #
#1140
b10000101 #
#1141
b1101010 #
#1142
b1101011 #
#1144
b1111001 #
#1145
b1111110 #
#1147
b1111101 #
#1148
b1101001 #
#1149
b1101100 #
#1150
b1101011 #
#1151
b1110101 #
#1152
b1111010 #
#1153
b1111011 #
#1154
b10001011 #
#1155
b1101011 #
#1157
b1110001 #
#1158
b1110111 #
#1159
b1111100 #
#1160
b10000011 #
#1162
b1100110 #
#1163
b1101010 #
#1165
b1110001 #
#1166
b1111010 #
#1167
b1111100 #
#1168
b10000101 #
#1169
b1100101 #
#1170
b1101001 #
#1171
b1101110 #
#1172
b1110110 #
#1173
b1111110 #
#1174
b10000010 #
#1175
b10000011 #
#1176
b1101010 #
#1177
b1101000 #
#1178
b1101111 #
#1179
b10000001 #
#1180
b1111011 #
#1181
b1111100 #
#1182
b10000111 #
#1183
b1101001 #
#1184
b1101010 #
#1185
b1101101 #
#1186
b1110010 #
#1187
b1111011 #
#1189
b1111111 #
#1190
b1101011 #
#1192
b1101100 #
#1193
b1111011 #
#1194
b1111101 #
#1195
b10000000 #
#1196
b10000100 #
#1197
b1101001 #
#1199
b1101011 #
#1200
b1111100 #
#1201
b1111000 #
#1202
b1111110 #
#1203
b10000110 #
#1204
b1101011 #
#1205
b1101100 #
#1206
b1101010 #
#1207
b1111001 #
#1208
b1111110 #
#1209
b10000001 #
#1210
b10000111 #
#1211
b1101011 #
#1214
b1111000 #
#1215
b1111101 #
#1216
b10000011 #
#1217
b10001010 #
#1218
b1101010 #
#1220
b1101110 #
#1221
b1111010 #
#1222
b1111011 #
#1223
b10000100 #
#1224
b10001111 #
#1225
b1101100 #
#1226
b1101010 #
#1227
b1101011 #
#1228
b1111010 #
#1229
b10000010 #
#1230
b10000000 #
#1231
b10001001 #
#1232
b1101011 #
#1233
b1101010 #
#1234
b1110000 #
#1235
b1111010 #
#1236
b1111101 #
#1237
b10000001 #
#1238
b10001001 #
#1239
b1101100 #
#1240
b1101011 #
#1241
b1110110 #
#1242
b1111011 #
#1243
b10000001 #
#1244
b10000010 #
#1245
b10000101 #
#1246
b1101011 #
#1247
b1101100 #
#1248
b1101011 #
#1249
b1111000 #
#1250
b1111010 #
#1251
b1111100 #
#1252
b10000101 #
#1253
b1101011 #
#1255
b1101101 #
#1256
b10000000 #
#1257
b10000010 #
#1258
b10000100 #
#1259
b10000101 #
#1260
b1101110 #
#1261
b1101001 #
#1262
b1110001 #
#1263
b10000000 #
#1264
b1111000 #
#1265
b10000011 #
#1266
b10000111 #
#1267
b1101001 #
#1268
b1101011 #
#1270
b1111000 #
#1271
b1111011 #
#1272
b10000001 #
#1273
b10000111 #
#1274
b1101001 #
#1275
b1101010 #
#1276
b1101011 #
#1277
b1111011 #
#1278
b1111001 #
#1279
b10000000 #
#1280
b10001110 #
#1281
b1101100 #
#1282
b1101010 #
#1283
b1101111 #
#1284
b10000001 #
#1285
b10000100 #
#1286
b1111110 #
#1287
b10000100 #
#1288
b1101001 #
#1289
b1101010 #
#1291
b1111001 #
#1292
b1111111 #
#1293
b1111110 #
#1294
b10000110 #
#1295
b1101001 #
#1297
b1101100 #
#1298
b1111001 #
#1299
b1111010 #
#1300
b1111110 #
#1301
b10000000 #
#1302
b1101110 #
#1303
b1101001 #
#1304
b1101111 #
#1305
b1111001 #
#1306
b1111000 #
#1307
b1111110 #
#1308
b10000101 #
#1309
b1101001 #
#1310
b1110000 #
#1311
b1101101 #
#1312
b1110110 #
#1313
b1111000 #
#1314
b1111101 #
#1315
b10000011 #
#1316
b1101001 #
#1317
b1101010 #
#1318
b1101100 #
#1319
b1111011 #
#1320
b1111110 #
#1322
b10001101 #
#1323
b1101001 #
#1325
b1101101 #
#1326
b1111101 #
#1327
b1111011 #
#1328
b1111110 #
#1329
b10000001 #
#1330
b1101001 #
#1331
b1101101 #
#1332
b1110010 #
#1333
b1111001 #
#1334
b1111100 #
#1335
b1111110 #
#1336
b10000101 #
#1337
b1100100 #
#1338
b1101011 #
#1340
b1110101 #
#1341
b1111001 #
#1342
b10000000 #
#1343
b10000100 #
#1344
b1101010 #
#1345
b1101000 #
#1346
b1110000 #
#1347
b1110111 #
#1348
b1111000 #
#1349
b1111100 #
#1350
b10000110 #
#1351
b1101101 #
#1352
b1101100 #
#1353
b1101011 #
#1354
b1111001 #
#1355
b1111111 #
#1356
b10000100 #
#1357
b10001001 #
#1358
b1101010 #
#1359
b1101101 #
#1360
b1110100 #
#1361
b1111110 #
#1363
b10000011 #
#1364
b10000111 #
#1365
b1110000 #
#1366
b1101100 #
#1367
b1110001 #
#1368
b10000001 #
#1369
b1111000 #
#1370
b10000011 #
#1371
b10001110 #
#1372
b1101011 #
#1373
b1101100 #
#1375
b1111001 #
#1376
b1111010 #
#1377
b1111111 #
#1378
b10000010 #
#1379
b1101000 #
#1380
b1101011 #
#1381
b1101101 #
#1382
b1111011 #
#1383
b1111000 #
#1384
b10000100 #
#1386
b1101011 #
#1387
b1101001 #
#1388
b1101011 #
#1389
b10000000 #
#1390
b1111010 #
#1391
b1111110 #
#1392
b10000101 #
#1393
b1101011 #
#1396
b1111010 #
#1398
b1111110 #
#1399
b10000001 #
#1400
b1101011 #
#1403
b1111000 #
#1404
b1111111 #
#1405
b1111100 #
#1406
b10000111 #
#1407
b1101011 #
#1409
b1101111 #
#1410
b1111011 #
#1411
b1111010 #
#1412
b10000010 #
#1413
b10000100 #
#1414
b1101001 #
#1415
b1101011 #
#1416
b1101101 #
#1417
b1110110 #
#1418
b1111010 #
#1419
b1111011 #
#1420
b10000111 #
#1421
b1101011 #
#1423
b1110010 #
#1424
b1110100 #
#1425
b1111011 #
#1426
b10000011 #
#1427
b10001101 #
#1428
b1101110 #
#1429
b1101011 #
#1430
b1110011 #
#1431
b10000000 #
#1432
b1111110 #
#1433
b1111101 #
#1434
b10000101 #
#1435
b1101001 #
#1436
b1101101 #
#1437
b1101110 #
#1438
b1110110 #
#1439
b1111010 #
#1440
b10000101 #
#1441
b10000111 #
#1442
b1101001 #
#1443
b1101101 #
#1444
b1110110 #
#1445
b1111011 #
#1446
b1111100 #
#1447
b10000001 #
#1448
b10001010 #
#1449
b1101011 #
#1450
b1101001 #
#1451
b1110010 #
#1452
b10000010 #
#1453
b1111011 #
#1454
b10000100 #
#1455
b10000110 #
#1456
b1101010 #
#1457
b1110011 #
#1458
b1110000 #
#1459
b1111010 #
#1460
b10000011 #
#1461
b10000001 #
#1462
b10000111 #
#1463
b1101011 #
#1464
b1101100 #
#1466
b1111011 #
#1467
b10000101 #
#1468
b1111110 #
#1469
b10001110 #
#1470
b1101101 #
#1471
b1101010 #
#1472
b1110010 #
#1473
b1111111 #
#1474
b10000010 #
#1475
b10000001 #
#1476
b10000111 #
#1477
b1101100 #
#1478
b1101011 #
#1479
b1101010 #
#1480
b1111011 #
#1481
b10000011 #
#1483
b10000111 #
#1484
b1101011 #
#1486
b1110000 #
#1487
b1111001 #
#1489
b10000000 #
#1490
b10000111 #
#1491
b1101110 #
#1492
b1101011 #
#1493
b1111001 #
#1494
b10000001 #
#1495
b1111010 #
#1496
b10000100 #
#1497
b10000101 #
#1498
b1101010 #
#1499
b1110000 #
#1500
b1101011 #
#1501
b1111010 #
#1502
b1111111 #
#1503
b10000011 #
#1504
b10000110 #
#1505
b1100101 #
#1506
b1101011 #
#1507
b1110001 #
#1508
b1110111 #
#1509
b1111010 #
#1510
b1111100 #
#1511
b10000111 #
#1512
b1101100 #
#1513
b1101010 #
#1514
b1101110 #
#1515
b10000000 #
#1516
b1111001 #
#1517
b10000011 #
#1518
b10000101 #
#1519
b1100111 #
#1520
b1101011 #
#1521
b1101010 #
#1522
b1111010 #
#1523
b1111100 #
#1524
b1111110 #
#1525
b10000100 #
#1526
b1101010 #
#1527
b1101101 #
#1528
b1101011 #
