hardware_design/nvdla_with_tdc_zc706/NVDLA_SMALL/.Xil/Vivado-20772-beta/hw_ila_data_1/zip_work/waveform.vcd
$date
        2022-Apr-25 21:02:17
$end
$version
        Vivado v2019.1 (64-bit)
$end
$timescale
        1ps
$end
$scope module dut $end
$var reg 32 " design_1_i/ro_bank_0_data_o [31:0] $end
$var reg 1 B _TRIGGER $end
$var reg 1 C _WINDOW $end
$var reg 1 D _GAP $end
$upscope $end
$enddefinitions $end
#0
$dumpvars
b1101111 "
0B
1C
0D
$end
#1
b1111010 "
#3
b1110010 "
#5
b1110001 "
#7
b1110011 "
#9
b1111001 "
#11
b1110100 "
#15
b1110010 "
#17
b1110101 "
#21
b1110011 "
#25
b1110101 "
#27
b1111000 "
#29
b1110011 "
#31
b1110111 "
#33
b1110101 "
#39
b1110001 "
#41
b1110110 "
#43
b1110001 "
#45
b1110110 "
#47
b1110100 "
#53
b1110110 "
#55
b1110100 "
#57
b1111000 "
#59
b1110010 "
#61
b1111010 "
#63
b1110100 "
#65
b1110011 "
#67
b1110100 "
#69
b1110011 "
#71
b1110100 "
#73
b1110110 "
#75
b1110111 "
#77
b1110100 "
#79
b1110011 "
#81
b1110110 "
#83
b1110010 "
#85
b1110111 "
#87
b1110000 "
#89
b1111000 "
#91
b1110001 "
#93
b1110101 "
#95
b1110100 "
#97
b1110111 "
#99
b1110010 "
#101
b1110110 "
#105
b1110100 "
#109
b1110011 "
#111
b1110111 "
#113
b1110001 "
#115
b1110101 "
#119
b1110010 "
#121
b1110110 "
#123
b1110100 "
#129
b1111000 "
#131
b1110010 "
#133
b1110101 "
#135
b1110011 "
#137
b1110101 "
#141
b1110011 "
#143
b1110111 "
#145
b1110110 "
#147
b1101111 "
#149
b1110100 "
#151
b1110111 "
#153
b1110101 "
#155
b1110100 "
#157
b1110111 "
#159
b1110001 "
#161
b1110110 "
#163
b1110111 "
#165
b1110100 "
#167
b1110010 "
#169
b1110101 "
#171
b1110100 "
#177
b1110011 "
#179
b1111001 "
#181
b1110000 "
#183
b1110110 "
#187
b1110011 "
#191
b1110110 "
#193
b1110100 "
#195
b1110101 "
#197
b1110100 "
#201
b1110011 "
#203
b1111000 "
#205
b1110001 "
#207
b1110110 "
#211
b1110010 "
#213
b1110100 "
#215
b1110110 "
#217
b1110101 "
#219
b1110111 "
#221
b1110001 "
#223
b1110110 "
#227
b1110010 "
#229
b1110001 "
#231
b1110101 "
#233
b1111000 "
#235
b1110011 "
#237
b1110100 "
#239
b1110110 "
#241
b1110010 "
#243
b1111000 "
#245
b1101111 "
#247
b1110010 "
#249
b1110111 "
#251
b1110010 "
#253
b1110001 "
#255
b1111000 "
#257
b1110011 "
#259
b1110100 "
#261
b1110101 "
#263
b1110110 "
#265
b1110011 "
#267
b1110100 "
#269
b1110011 "
#271
b1110101 "
#275
b1110111 "
#277
b1110000 "
#279
b1111000 "
#281
b1110011 "
#283
b1110100 "
#285
b1110010 "
#287
b1111000 "
#289
b1110100 "
#291
b1110110 "
#293
b1110101 "
#297
b1110001 "
#299
b1110101 "
#301
b1110110 "
#305
b1110101 "
#307
b1110100 "
#309
b1110011 "
#311
b1110101 "
#313
b1110100 "
#315
b1110111 "
#317
b1110011 "
#319
b1110100 "
#321
b1110111 "
#323
b1110001 "
#325
b1110111 "
#327
b1110001 "
#329
b1111001 "
#331
b1110100 "
#333
b1110101 "
#335
b1110000 "
#337
b1110100 "
#339
b1110111 "
#341
b1110011 "
#345
b1110110 "
#349
b1110101 "
#351
b1110010 "
#353
b1110100 "
#355
b1110110 "
#357
b1110011 "
#359
b1110001 "
#361
b1111010 "
#363
b1110010 "
#365
b1110011 "
#369
b1110101 "
#371
b1110100 "
#373
b1110101 "
#375
b1110110 "
#377
b1101111 "
#379
b1111000 "
#381
b1110000 "
#383
b1111000 "
#385
b1110100 "
#387
b1110110 "
#389
b1110011 "
#393
b1110110 "
#395
b1111000 "
#397
b1110100 "
#399
b1110011 "
#401
b1110100 "
#403
b1111000 "
#405
b1101111 "
#407
b1110101 "
#409
b1110100 "
#411
b1110010 "
#413
b1110101 "
#415
b1110100 "
#417
b1110011 "
#419
b1110110 "
#421
b1110000 "
#423
b1110110 "
#425
b1110010 "
#427
b1110111 "
#429
b1110101 "
#431
b1110100 "
#433
b1110110 "
#435
b1110101 "
#437
b1110100 "
#439
b1110010 "
#441
b1110100 "
#443
b1110111 "
#445
b1110010 "
#447
b1110111 "
#449
b1110100 "
#453
b1110110 "
#457
b1110011 "
#459
b1110000 "
#461
b1111010 "
#463
b1110010 "
#465
b1110100 "
#467
b1110101 "
#475
b1110011 "
#477
b1110100 "
#479
b1110011 "
#481
b1110111 "
#483
b1110101 "
#485
b1110010 "
#487
b1110100 "
#491
b1110110 "
#493
b1110011 "
#495
b1110100 "
#497
b1110110 "
#499
b1110010 "
#501
b1110100 "
#503
b1111001 "
#505
b1101111 "
#507
b1110100 "
#509
b1110101 "
#511
b1111000 "
#512
1B
#513
b1110010 "
#515
b1110101 "
#517
b1110100 "
#519
b1110011 "
#521
b1110100 "
#525
b1111000 "
#527
b1110100 "
#529
b1110010 "
#531
b1110101 "
#535
b1110111 "
#539
b1101111 "
#541
b1110101 "
#545
b1110010 "
#547
b1110101 "
#549
b1111000 "
#551
b1110001 "
#553
b1110111 "
#555
b1110011 "
#557
b1110010 "
#559
b1110110 "
#561
b1110101 "
#563
b1110011 "
#565
b1111010 "
#567
b1101111 "
#569
b1111000 "
#571
b1110100 "
#573
b1110011 "
#575
b1110100 "
#577
b1110111 "
#579
b1110110 "
#581
b1110010 "
#583
b1110110 "
#585
b1110011 "
#587
b1110100 "
#589
b1110110 "
#591
b1110100 "
#595
b1110010 "
#597
b1110101 "
#601
b1110111 "
#603
b1110000 "
#605
b1110101 "
#607
b1110111 "
#609
b1110101 "
#613
b1110100 "
#615
b1110011 "
#617
b1110101 "
#619
b1110110 "
#621
b1110010 "
#623
b1110011 "
#625
b1110100 "
#627
b1110110 "
#629
b1110011 "
#633
b1110101 "
#635
b1110110 "
#637
b1110100 "
#639
b1110000 "
#641
b1111001 "
#643
b1110010 "
#645
b1110100 "
#649
b1110110 "
#651
b1110100 "
#653
b1110110 "
#655
b1110010 "
#657
b1110101 "
#659
b1110011 "
#661
b1110101 "
#663
b1110100 "
#665
b1110110 "
#667
b1110101 "
#669
b1110001 "
#671
b1111000 "
#673
b1110010 "
#675
b1110101 "
#677
b1110111 "
#679
b1110010 "
#681
b1110100 "
#683
b1110011 "
#685
b1110110 "
#689
b1110011 "
#693
b1110110 "
#695
b1110010 "
#697
b1110011 "
#703
b1110110 "
#709
b1110001 "
#711
b1110101 "
#713
b1110111 "
#715
b1110100 "
#717
b1110010 "
#721
b1111001 "
#723
b1110011 "
#725
b1110010 "
#727
b1110100 "
#729
b1110101 "
#731
b1110100 "
#735
b1110110 "
#737
b1110011 "
#741
b1110110 "
#743
b1110010 "
#745
b1110110 "
#747
b1110011 "
#749
b1110101 "
#751
b1110110 "
#753
b1110101 "
#755
b1110001 "
#757
b1110110 "
#759
b1110000 "
#761
b1110101 "
#763
b1110111 "
#765
b1110011 "
#769
b1110101 "
#773
b1110100 "
#775
b1110111 "
#777
b1110000 "
#779
b1111001 "
#781
b1110011 "
#783
b1110101 "
#785
b1110010 "
#787
b1110101 "
#789
b1110110 "
#791
b1110000 "
#793
b1111001 "
#795
b1110011 "
#797
b1110110 "
#799
b1110100 "
#801
b1110010 "
#803
b1110111 "
#805
b1110010 "
#807
b1110111 "
#809
b1110100 "
#811
b1110010 "
#813
b1110110 "
#815
b1110101 "
#817
b1110100 "
#819
b1110010 "
#821
b1111000 "
#823
b1110101 "
#825
b1110011 "
#827
b1110100 "
#829
b1110101 "
#833
b1110111 "
#835
b1110001 "
#837
b1110111 "
#839
b1110001 "
#841
b1111000 "
#843
b1110100 "
#845
b1110111 "
#847
b1110011 "
#849
b1110010 "
#851
b1110111 "
#853
b1110100 "
#855
b1110111 "
#857
b1110010 "
#859
b1110100 "
#861
b1110010 "
#863
b1111010 "
#865
b1110010 "
#867
b1110100 "
#871
b1110111 "
#873
b1110010 "
#877
b1110110 "
#879
b1111000 "
#881
b1110101 "
#883
b1110000 "
#885
b1110111 "
#887
b1110010 "
#889
b1110111 "
#891
b1110011 "
#893
b1110010 "
#895
b1110111 "
#897
b1110001 "
#899
b1110111 "
#901
b1110001 "
#903
b1110111 "
#905
b1110101 "
#909
b1110011 "
#911
b1110101 "
#913
b1110110 "
#915
b1110001 "
#917
b1110111 "
#919
b1110010 "
#921
b1110111 "
#923
b1110101 "
#925
b1110011 "
#927
b1110110 "
#929
b1110011 "
#933
b1110100 "
#935
b1110101 "
#937
b1110011 "
#939
b1110010 "
#941
b1110111 "
#943
b1110100 "
#945
b1110110 "
#947
b1110100 "
#949
b1110110 "
#951
b1110010 "
#953
b1110101 "
#955
b1110010 "
#957
b1110110 "
#959
b1110100 "
#961
b1110101 "
#963
b1110100 "
#965
b1110001 "
#967
b1110110 "
#969
b1110101 "
#971
b1110100 "
#973
b1110101 "
#975
b1110011 "
#977
b1110101 "
#979
b1110011 "
#981
b1110100 "
#983
b1110110 "
#985
b1110010 "
#987
b1110101 "
#989
b1110110 "
#991
b1110010 "
#993
b1110101 "
#995
b1110100 "
#997
b1110010 "
#999
b1110110 "
#1001
b1110011 "
#1003
b1110100 "
#1005
b1110110 "
#1009
b1110010 "
#1011
b1110111 "
#1013
b1101111 "
#1015
b1110111 "
#1017
b1110100 "
#1021
b1110110 "
#1023
b1110011 "
